15 15
yyyyyyyyyyyyyyy
y.............y
y.gg.gggggggg.y
y.g.........g.y
y.g.bbbbbbb.g.y
y.g.b.....b.g.y
y.g.b.rrr.b.g.y
y.g...r*..b.g.y
y.g.b.rrr.b.g.y
y.g.b.....b.g.y
y.g.bbbbbbb.g.y
y.g.........g..
y.ggggggggggg.y
y.............y
yyyyyyyyyyyyyyy
